﻿{
  "Data": {
    "MongoConnection": "95.213.252.146",
    "Port": "27017",
    "Database": "MoonFresh",
    "UserName": "MoonFresh",
    "Password": "02121988",
    "AuthorizeDb": "MoonFresh"
  }
    
  

}
